INDEX VERSION 1.127+E:\Bearbeiten\.metadata\.plugins\org.eclipse.jdt.core
1654984216.index
835279878.index
881303192.index
2062422173.index
3176364129.index
358050146.index
885468716.index
3963179895.index
2448026493.index
290714306.index
3520661010.index
1749649445.index
363654075.index
2958705335.index
3806158590.index
3097394219.index
4033019822.index
847618560.index
3776425001.index
844601494.index
248351807.index
164840463.index
2394392208.index
949515501.index
3276298200.index
2067298368.index
2143716467.index
3855143393.index
3933372897.index
3787192398.index
2374642432.index
1967328805.index
881895235.index
3854709706.index
